module bitbucket.org/8ox86/apex-log

require (
	github.com/apex/log v1.1.0
	github.com/davecgh/go-spew v1.1.1 // indirect
	github.com/pkg/errors v0.8.0 // indirect
	github.com/pmezard/go-difflib v1.0.0 // indirect
	github.com/stretchr/testify v1.2.2
)
